sim/cpu.vcd
$date
	Thu Mar 12 23:56:07 2026
$end
$version
	Icarus Verilog
$end
$timescale
	1s
$end
$scope module tb_cpu $end
$var reg 1 ! clk $end
$var reg 1 " reset $end
$scope module uut $end
$var wire 1 ! clk $end
$var wire 1 " reset $end
$var wire 1 # Zero $end
$var wire 2 $ ResultSrc [1:0] $end
$var wire 1 % RegWrite $end
$var wire 1 & PCSrc $end
$var wire 1 ' MemWrite $end
$var wire 32 ( Instr [31:0] $end
$var wire 2 ) ImmSrc [1:0] $end
$var wire 1 * ALUSrc $end
$var wire 3 + ALUControl [2:0] $end
$scope module c $end
$var wire 1 & PCSrc $end
$var wire 3 , funct3 [2:0] $end
$var wire 7 - funct7 [6:0] $end
$var wire 7 . op [6:0] $end
$var wire 1 # Zero $end
$var wire 2 / ResultSrc [1:0] $end
$var wire 1 % RegWrite $end
$var wire 1 ' MemWrite $end
$var wire 2 0 ImmSrc [1:0] $end
$var wire 1 1 Branch $end
$var wire 1 * ALUSrc $end
$var wire 2 2 ALUOp [1:0] $end
$var wire 3 3 ALUControl [2:0] $end
$scope module ad $end
$var wire 3 4 funct3 [2:0] $end
$var wire 7 5 funct7 [6:0] $end
$var wire 7 6 op [6:0] $end
$var wire 2 7 ALUOp [1:0] $end
$var reg 3 8 ALUControl [2:0] $end
$upscope $end
$scope module md $end
$var wire 7 9 opcode [6:0] $end
$var reg 1 * ALUSrc $end
$var reg 2 : AluOp [1:0] $end
$var reg 2 ; ImmSrc [1:0] $end
$var reg 1 ' MemWrite $end
$var reg 1 1 PCSrc $end
$var reg 1 % RegWrite $end
$var reg 2 < ResultSrc [1:0] $end
$upscope $end
$upscope $end
$scope module dp $end
$var wire 3 = ALUControl [2:0] $end
$var wire 1 * ALUSrc $end
$var wire 2 > ImmSrc [1:0] $end
$var wire 1 ' MemWrite $end
$var wire 1 & PCSrc $end
$var wire 1 % RegWrite $end
$var wire 2 ? ResultSrc [1:0] $end
$var wire 1 ! clk $end
$var wire 1 " reset $end
$var wire 1 # Zero $end
$var wire 32 @ SrcB [31:0] $end
$var wire 32 A Result [31:0] $end
$var wire 32 B ReadData [31:0] $end
$var wire 32 C RD2 [31:0] $end
$var wire 32 D RD1 [31:0] $end
$var wire 32 E PCTarget [31:0] $end
$var wire 32 F PCPlus4 [31:0] $end
$var wire 32 G PCNext [31:0] $end
$var wire 32 H PC [31:0] $end
$var wire 32 I Instr [31:0] $end
$var wire 32 J ImmExt [31:0] $end
$var wire 32 K ALUResult [31:0] $end
$scope module ResultMux $end
$var wire 2 L sel [1:0] $end
$var wire 32 M C [31:0] $end
$var wire 32 N B [31:0] $end
$var wire 32 O A [31:0] $end
$var reg 32 P Y [31:0] $end
$upscope $end
$scope module addbranch $end
$var wire 32 Q PCTarget [31:0] $end
$var wire 32 R PC [31:0] $end
$var wire 32 S ImmExt [31:0] $end
$upscope $end
$scope module addpcdef $end
$var wire 32 T PCPlus4 [31:0] $end
$var wire 32 U PC [31:0] $end
$upscope $end
$scope module alu_unit $end
$var wire 3 V ALUControl [2:0] $end
$var wire 1 # Zero $end
$var wire 32 W SrcB [31:0] $end
$var wire 32 X SrcA [31:0] $end
$var parameter 3 Y ADD $end
$var parameter 3 Z AND $end
$var parameter 3 [ OR $end
$var parameter 3 \ SLT $end
$var parameter 3 ] SUB $end
$var reg 32 ^ ALUResult [31:0] $end
$upscope $end
$scope module alumux $end
$var wire 1 * sel $end
$var wire 32 _ Y [31:0] $end
$var wire 32 ` B [31:0] $end
$var wire 32 a A [31:0] $end
$upscope $end
$scope module dm $end
$var wire 32 b A [31:0] $end
$var wire 32 c ReadData [31:0] $end
$var wire 1 ' WE $end
$var wire 1 ! clk $end
$var wire 32 d WriteData [31:0] $end
$upscope $end
$scope module ext $end
$var wire 2 e ImmSrc [1:0] $end
$var wire 25 f instr [31:7] $end
$var reg 32 g ImmExt [31:0] $end
$upscope $end
$scope module imem_unit $end
$var wire 32 h Instr [31:0] $end
$var wire 32 i PC [31:0] $end
$upscope $end
$scope module pcmux $end
$var wire 32 j A [31:0] $end
$var wire 32 k B [31:0] $end
$var wire 1 & sel $end
$var wire 32 l Y [31:0] $end
$upscope $end
$scope module pcounter $end
$var wire 32 m PCNext [31:0] $end
$var wire 1 ! clk $end
$var wire 1 " reset $end
$var reg 32 n PC [31:0] $end
$upscope $end
$scope module rf $end
$var wire 5 o A1 [4:0] $end
$var wire 5 p A2 [4:0] $end
$var wire 5 q A3 [4:0] $end
$var wire 32 r RD1 [31:0] $end
$var wire 32 s RD2 [31:0] $end
$var wire 1 % RegWrite $end
$var wire 32 t WriteData [31:0] $end
$var wire 1 ! clk $end
$var integer 32 u i [31:0] $end
$upscope $end
$upscope $end
$upscope $end
$upscope $end
$enddefinitions $end
$comment Show the parameter values. $end
$dumpall
b1 ]
b101 \
b11 [
b10 Z
b0 Y
$end
#0
$dumpvars
b100000 u
b101 t
b0 s
b0 r
b1 q
b101 p
b0 o
b0 n
b100 m
b100 l
b101 k
b100 j
b0 i
b10100000000000010010011 h
b101 g
b1010000000000001 f
b0 e
b0 d
bx c
b101 b
b0 a
b101 `
b101 _
b101 ^
b0 X
b101 W
b0 V
b0 U
b100 T
b101 S
b0 R
b101 Q
b101 P
b101 O
bx N
b100 M
b0 L
b101 K
b101 J
b10100000000000010010011 I
b0 H
b100 G
b100 F
b101 E
b0 D
b0 C
bx B
b101 A
b101 @
b0 ?
b0 >
b0 =
b0 <
b0 ;
b10 :
b10011 9
b0 8
b10 7
b10011 6
b0 5
b0 4
b0 3
b10 2
01
b0 0
b0 /
b10011 .
b0 -
b0 ,
b0 +
1*
b0 )
b10100000000000010010011 (
0'
0&
1%
b0 $
0#
1"
0!
$end
#5
1!
#10
0!
0"
#15
b1010 A
b1010 P
b1010 t
b1010 K
b1010 O
b1010 ^
b1010 b
b1010 @
b1010 W
b1010 _
b1010 J
b1010 S
b1010 `
b1010 g
b10100000000000010 f
b10 q
b1010 p
b101000000000000100010011 (
b101000000000000100010011 I
b101000000000000100010011 h
b1000 G
b1000 l
b1000 m
b1000 F
b1000 M
b1000 T
b1000 j
b1110 E
b1110 Q
b1110 k
b100 H
b100 R
b100 U
b100 i
b100 n
1!
#20
0!
#25
b1111 A
b1111 P
b1111 t
b10 J
b10 S
b10 `
b10 g
b1111 K
b1111 O
b1111 ^
b1111 b
b10 2
b10 7
b10 :
0*
1%
b100000100000011 f
b11 q
b1010 C
b1010 a
b1010 d
b1010 s
b10 p
b101 D
b101 X
b101 r
b1 o
b110011 .
b110011 6
b110011 9
b1000001000000110110011 (
b1000001000000110110011 I
b1000001000000110110011 h
b1100 G
b1100 l
b1100 m
b1100 F
b1100 M
b1100 T
b1100 j
b1010 E
b1010 Q
b1010 k
b1000 H
b1000 R
b1000 U
b1000 i
b1000 n
1!
#30
0!
#35
1#
b0 A
b0 P
b0 t
b0 J
b0 S
b0 `
b0 g
b0 @
b0 W
b0 _
b0 K
b0 O
b0 ^
b0 b
b1 )
b1 0
b1 ;
b1 >
b1 e
1*
1'
b0 2
b0 7
b0 :
0%
b110000001000000 f
b0 q
b1111 C
b1111 a
b1111 d
b1111 s
b11 p
b0 D
b0 X
b0 r
b0 o
b10 ,
b10 4
b100011 .
b100011 6
b100011 9
b1100000010000000100011 (
b1100000010000000100011 I
b1100000010000000100011 h
b10000 G
b10000 l
b10000 m
b10000 F
b10000 M
b10000 T
b10000 j
b1100 E
b1100 Q
b1100 k
b1100 H
b1100 R
b1100 U
b1100 i
b1100 n
1!
#40
0!
#45
b1111 A
b1111 P
b1111 t
b1 $
b1 /
b1 <
b1 ?
b1 L
1%
b0 )
b0 0
b0 ;
b0 >
b0 e
1*
0'
b1000100 f
b100 q
b0 C
b0 a
b0 d
b0 s
b0 p
b11 .
b11 6
b11 9
b10001000000011 (
b10001000000011 I
b10001000000011 h
b10100 G
b10100 l
b10100 m
b1111 B
b1111 N
b1111 c
b10100 F
b10100 M
b10100 T
b10100 j
b10000 E
b10000 Q
b10000 k
b10000 H
b10000 R
b10000 U
b10000 i
b10000 n
1!
#50
0!
#55
b0 A
b0 P
b0 t
b1111 B
b1111 N
b1111 c
b1111 @
b1111 W
b1111 _
b1000 J
b1000 S
b1000 `
b1000 g
1#
b0 K
b0 O
b0 ^
b0 b
b1 +
b1 3
b1 8
b1 =
b1 V
b1 2
b1 7
b1 :
b10 )
b10 0
b10 ;
b10 >
b10 e
b0 $
b0 /
b0 <
b0 ?
b0 L
0*
0%
b110010000001000 f
b1000 q
b1111 C
b1111 a
b1111 d
b1111 s
b11 p
b1111 D
b1111 X
b1111 r
b100 o
b0 ,
b0 4
b1100011 .
b1100011 6
b1100011 9
b1100100000010001100011 (
b1100100000010001100011 I
b1100100000010001100011 h
b11000 G
b11000 l
b11000 m
b11000 F
b11000 M
b11000 T
b11000 j
b11100 E
b11100 Q
b11100 k
b10100 H
b10100 R
b10100 U
b10100 i
b10100 n
1!
#60
0!
#65
b1111 B
b1111 N
b1111 c
b1 A
b1 P
b1 t
b1 J
b1 S
b1 `
b1 g
b1 @
b1 W
b1 _
0#
b1 K
b1 O
b1 ^
b1 b
b0 +
b0 3
b0 8
b0 =
b0 V
1*
1%
b10 2
b10 7
b10 :
b0 )
b0 0
b0 ;
b0 >
b0 e
b10000000000101 f
b101 q
b101 C
b101 a
b101 d
b101 s
b1 p
b0 D
b0 X
b0 r
b0 o
b10011 .
b10011 6
b10011 9
b100000000001010010011 (
b100000000001010010011 I
b100000000001010010011 h
b11100 G
b11100 l
b11100 m
b11100 F
b11100 M
b11100 T
b11100 j
b11001 E
b11001 Q
b11001 k
b11000 H
b11000 R
b11000 U
b11000 i
b11000 n
1!
#70
0!
#75
b10 A
b10 P
b10 t
b10 K
b10 O
b10 ^
b10 b
b10 @
b10 W
b10 _
b10 J
b10 S
b10 `
b10 g
b100000000000110 f
b110 q
b1010 C
b1010 a
b1010 d
b1010 s
b10 p
b1000000000001100010011 (
b1000000000001100010011 I
b1000000000001100010011 h
b100000 G
b100000 l
b100000 m
b100000 F
b100000 M
b100000 T
b100000 j
b11110 E
b11110 Q
b11110 k
b11100 H
b11100 R
b11100 U
b11100 i
b11100 n
1!
#80
0!
#85
bx B
bx N
bx c
bx A
bx P
bx t
bx @
bx W
bx _
bx J
bx S
bx `
bx g
x#
bx K
bx O
bx ^
bx b
b0 2
b0 7
b0 :
0*
0%
bx f
bx q
bx C
bx a
bx d
bx s
bx p
bx D
bx X
bx r
bx o
bx -
bx 5
bx ,
bx 4
bx .
bx 6
bx 9
bx (
bx I
bx h
b100100 G
b100100 l
b100100 m
b100100 F
b100100 M
b100100 T
b100100 j
bx E
bx Q
bx k
b100000 H
b100000 R
b100000 U
b100000 i
b100000 n
1!
#90
0!
#95
b101000 G
b101000 l
b101000 m
b101000 F
b101000 M
b101000 T
b101000 j
b100100 H
b100100 R
b100100 U
b100100 i
b100100 n
1!
#100
0!
#105
b101100 G
b101100 l
b101100 m
b101100 F
b101100 M
b101100 T
b101100 j
b101000 H
b101000 R
b101000 U
b101000 i
b101000 n
1!
#110
0!
#115
b110000 G
b110000 l
b110000 m
b110000 F
b110000 M
b110000 T
b110000 j
b101100 H
b101100 R
b101100 U
b101100 i
b101100 n
1!
#120
0!
#125
b110100 G
b110100 l
b110100 m
b110100 F
b110100 M
b110100 T
b110100 j
b110000 H
b110000 R
b110000 U
b110000 i
b110000 n
1!
#130
0!
#135
b111000 G
b111000 l
b111000 m
b111000 F
b111000 M
b111000 T
b111000 j
b110100 H
b110100 R
b110100 U
b110100 i
b110100 n
1!
#140
0!
#145
b111100 G
b111100 l
b111100 m
b111100 F
b111100 M
b111100 T
b111100 j
b111000 H
b111000 R
b111000 U
b111000 i
b111000 n
1!
#150
0!
#155
b1000000 G
b1000000 l
b1000000 m
b1000000 F
b1000000 M
b1000000 T
b1000000 j
b111100 H
b111100 R
b111100 U
b111100 i
b111100 n
1!
#160
0!
#165
b1000100 G
b1000100 l
b1000100 m
b1000100 F
b1000100 M
b1000100 T
b1000100 j
b1000000 H
b1000000 R
b1000000 U
b1000000 i
b1000000 n
1!
#170
0!
#175
b1001000 G
b1001000 l
b1001000 m
b1001000 F
b1001000 M
b1001000 T
b1001000 j
b1000100 H
b1000100 R
b1000100 U
b1000100 i
b1000100 n
1!
#180
0!
#185
b1001100 G
b1001100 l
b1001100 m
b1001100 F
b1001100 M
b1001100 T
b1001100 j
b1001000 H
b1001000 R
b1001000 U
b1001000 i
b1001000 n
1!
#190
0!
#195
b1010000 G
b1010000 l
b1010000 m
b1010000 F
b1010000 M
b1010000 T
b1010000 j
b1001100 H
b1001100 R
b1001100 U
b1001100 i
b1001100 n
1!
#200
0!
#205
b1010100 G
b1010100 l
b1010100 m
b1010100 F
b1010100 M
b1010100 T
b1010100 j
b1010000 H
b1010000 R
b1010000 U
b1010000 i
b1010000 n
1!
